<?xml version="1.0" encoding="UTF-8"?>
<svg width="103" height="20" xmlns="http://www.w3.org/2000/svg" xmlns:xlink="http://www.w3.org/1999/xlink">
    <defs>
        <linearGradient id="gloss" x2="0" y2="100%">
            <stop offset="0" stop-color="#bbbbbb" stop-opacity=".1"/>
            <stop offset="1" stop-opacity=".1"/>
        </linearGradient>
    </defs>
    <path fill="#555555" d="M43,0 h-40 q-3,0 -3,3 v14 q0,3 3,3 h40 z" /> 
    <path fill="url(#gloss)" d="M43,0 h-40 q-3,0 -3,3 v14 q0,3 3,3 h40 z" /> 
    <text x="5" y="15" fill="#010101" fill-opacity=".3" font-family="DejaVu Sans,Verdana,Geneva,sans-serif" font-size="11">plugin</text>
    <text x="4" y="14" fill="#FFFFFF" font-family="DejaVu Sans,Verdana,Geneva,sans-serif" font-size="11">plugin</text>
    <path fill="#0088CC" d="M43,0 h57 q3,0 3,3 v14 q0,3 -3,3 h-57 z" /> 
    <path fill="url(#gloss)" d="M43,0 h57 q3,0 3,3 v14 q0,3 -3,3 h-57 z" /> 
    <text x="48" y="15" fill="#010101" fill-opacity=".3" font-family="DejaVu Sans,Verdana,Geneva,sans-serif" font-size="11">DokuWiki</text>
    <text x="47" y="14" fill="#FFFFFF" font-family="DejaVu Sans,Verdana,Geneva,sans-serif" font-size="11">DokuWiki</text>
</svg>
